<?xml version="1.0" encoding="UTF-8" standalone="no"?>
<svg
   viewBox="0 0 1024 1024"
   version="1.1"
   id="svg4"
   width="1024"
   height="1024"
   xmlns="http://www.w3.org/2000/svg"
   xmlns:svg="http://www.w3.org/2000/svg">
  <defs
     id="defs8" />
  <!--! Font Awesome Pro 6.2.1 by @fontawesome - https://fontawesome.com License - https://fontawesome.com/license (Commercial License) Copyright 2022 Fonticons, Inc. -->
  <path
     d="m 944.51305,350.68985 c 0,-207.16255 -129.50158,-267.904659 -129.50158,-267.904659 -127.08267,-61.168367 -464.58758,-60.528977 -590.45064,0 0,0 -129.521885,60.742109 -129.521885,267.904659 0,246.59164 -13.415639,552.85974 214.711175,616.15943 82.34356,22.80494 153.10088,27.70686 210.03603,24.29684 103.28008,-5.96768 161.23157,-38.57658 161.23157,-38.57658 l -3.45555,-78.64504 c 0,0 -73.80633,24.29684 -156.75968,21.52614 -82.14029,-2.98382 -168.7118,-9.37773 -182.18842,-115.0903 a 208.43021,218.5437 0 0 1 -1.8294,-29.6251 c 174.05772,44.54421 322.48345,19.39484 363.34017,14.27972 C 814.19841,750.73524 913.5554,676.99219 926.219,609.64305 946.13914,503.50421 944.51305,350.68985 944.51305,350.68985 Z M 791.81868,617.52887 h -94.7835 V 374.13418 c 0,-105.92571 -130.09103,-109.97519 -130.09103,14.70598 V 522.04654 H 472.77044 V 388.81885 c 0,-124.68117 -130.09102,-120.63169 -130.09102,-14.70599 v 243.39469 h -94.98678 c 0,-260.23197 -10.5699,-315.21956 37.42149,-372.97784 52.64621,-61.59464 162.24791,-65.64411 211.05237,13.00094 l 23.57899,41.56039 23.57901,-41.56039 c 49.00772,-79.07131 158.79235,-74.16931 211.05236,-13.00094 48.19466,58.18454 37.40117,112.959 37.40117,372.97784 z"
     id="path2"
     fill="#333"
     style="stroke-width:2.0814" />
</svg>
